brand, product_name, shipping
Sapphire Tech,Sapphire Radeon NITRO+ RX 580 8GB GDDR5 PCI-E Dual HDMI / DVI-D / Dual DP w/ Backplate (UEFI)| 100411NT+8GL,
EVGA,EVGA GeForce GTX 1080 Ti FTW3 GAMING| 11G-P4-6696-KR| 11GB GDDR5X| iCX Technology - 9 Thermal Sensors & RGB LED G/P/M,
PowerColor,PowerColor RED DEVIL Radeon RX 580 DirectX 12 AXRX 580 8GBD5-3DH/OC 8GB 256-Bit GDDR5 PCI Express 3.0 CrossFireX Support ATX Video Card,
EVGA,EVGA GeForce GTX 1070 Ti SC GAMING 08G-P4-5671-KR 8GB GDDR5 ACX 3.0 & Black Edition,
EVGA,EVGA GeForce GTX 1050 Ti SC GAMING| 04G-P4-6253-KR| 4GB GDDR5| DX12 OSD Support (PXOC),
EVGA,EVGA GeForce GTX 1080 SC GAMING ACX 3.0| 08G-P4-6183-KR| 8GB GDDR5X| LED| DX12 OSD Support (PXOC),
EVGA,EVGA GeForce GTX 1080 FTW GAMING ACX 3.0| 08G-P4-6286-KR| 8GB GDDR5X| RGB LED| 10CM FAN| 10 Power Phases| Double BIOS| DX12 OSD Support (PXOC),
ZOTAC,ZOTAC GeForce GTX 1080 Mini| ZT-P10800H-10P| 8GB GDDR5X IceStorm Cooling| Dual Fans| 90mm Pressure Optimized Fan| 100mm Maximum Airflow Optimized Fan| Direct GPU Copper Block Contact| Metal Back Plate,
EVGA,EVGA GeForce GTX 1070 SC GAMING ACX 3.0 Black Edition| 08G-P4-5173-KR| 8GB GDDR5| LED| DX12 OSD Support (PXOC),
EVGA,EVGA GeForce GTX 1070 SC GAMING ACX 3.0| 08G-P4-6173-KR| 8GB GDDR5| LED| DX12 OSD Support (PXOC),
EVGA,EVGA GeForce GTX 1060 GAMING| ACX 2.0 (Single Fan)| 06G-P4-6161-KR| 6GB GDDR5| DX12 OSD Support (PXOC)| Only 6.8 Inches,
ZOTAC,ZOTAC GeForce GTX 1050 Ti DirectX 12 ZT-P10510A-10L 4GB 128-Bit GDDR5 PCI Express 3.0 HDCP Ready Mini Video Card,
EVGA,EVGA GeForce GTX 1060 DirectX 12 06G-P4-6262-KR 6GB 192-Bit GDDR5 PCI Express 3.0 Video Card,
EVGA,EVGA GeForce GTX 1060 GAMING| ACX 2.0 (Single Fan)| 03G-P4-6160-KR| 3GB GDDR5| DX12 OSD Support (PXOC)| Only 6.8 Inches,
EVGA,EVGA GeForce GTX 1080 Ti SC Black Edition GAMING| 11G-P4-6393-KR| 11GB GDDR5X| iCX Cooler & LED,
EVGA,EVGA GeForce GTX 1050 Ti GAMING| 04G-P4-6251-KR| 4GB GDDR5| DX12 OSD Support (PXOC),
ZOTAC,ZOTAC GeForce GTX 1070 Ti DirectX 12 ZT-P10710G-10P 8GB 256-Bit GDDR5 PCI Express 3.0 Video Card - Mini,
Sapphire Tech,SAPPHIRE NITRO+ Radeon RX Vega 64 DirectX 12 100410NT+SR 8GB 2048-Bit HBM2 PCI Express 3.0 Video Card,
EVGA,EVGA GeForce GTX 1080 FTW2 GAMING iCX| 08G-P4-6686-KR| 8GB GDDR5X| RGB LED| 9 Thermal Sensors| Asynchronous Fan Control| Thermal Display LED System| Optimized Airflow Fin Design| Die Cast/Form Fitted,
ZOTAC,ZOTAC GeForce GTX 1060 Mini| ZT-P10600A-10L| 6GB GDDR5 Super Compact,
EVGA,EVGA GeForce GTX 1060 SC GAMING| ACX 2.0 (Single Fan)| 06G-P4-6163-KR| 6GB GDDR5| DX12 OSD Support (PXOC)| Only 6.8 Inches,
ZOTAC,ZOTAC GeForce GTX 1080 Ti AMP Extreme Core 11GB GDDR5X 352-bit Gaming Graphics Card VR Ready 16+2 Power Phase Freeze Fan Stop IceStorm Cooling Spectra Lighting ZT-P10810F-10P,
EVGA,EVGA GeForce GTX 1080 GAMING ACX 3.0| 08G-P4-6181-KR| 8GB GDDR5X| LED| DX12 OSD Support (PXOC),
Sapphire Tech,SAPPHIRE NITRO+ Radeon RX 580 DirectX 12 100411NT+4G-2L 4GB 256-Bit GDDR5 CrossFireX Support ATX Video Card w/ Backplate (UEFI)| SAMSUNG MEMORY,
Sapphire Tech,SAPPHIRE PULSE Radeon RX Vega 56 DirectX 12 100420PSR 8GB 2048-Bit HBM2 PCI Express 3.0 CrossFireX Support ATX Video Card,
EVGA,EVGA GeForce GTX 1060 6GB SSC GAMING ACX 3.0| 6GB GDDR5| LED| DX12 OSD Support (PXOC)| 06G-P4-6267-KR,
PowerColor,PowerColor RED DRAGON Radeon RX 580 DirectX 12 AXRX 580 8GBD5-3DHDV2/OC 8GB 256-Bit GDDR5 PCI Express 3.0 CrossFireX Support ATX Video Card,
EVGA,EVGA GeForce GTX 1080 FTW HYBRID GAMING| 08G-P4-6288-KR| 8GB GDDR5X| RGB LED| All-In-One Watercooling with 10CM FAN| 10 Power Phases| Double BIOS| DX12 OSD Support (PXOC),
PowerColor,PowerColor RED DRAGON Radeon RX Vega 56 DirectX 12 AXRX VEGA 56 8GBHBM2-2D2HD/OC 8GB 2048-Bit HBM2 PCI Express 3.0 CrossFireX Support ATX Video Card,
EVGA,EVGA GeForce GTX 1070 Ti DirectX 12 08G-P4-6678-KR 8GB 256-Bit GDDR5 PCI Express 3.0 SLI Support Video Card,
PowerColor,PowerColor Radeon RX Vega 64 DirectX 12 AXRX VEGA 64 8GBHBM2-2D2H/OC 8GB 2048-Bit HBM2 PCI Express 3.0 CrossFireX Support ATX Video Card,
EVGA,EVGA GeForce GTX 1070 FTW GAMING ACX 3.0| 08G-P4-6276-KR| 8GB GDDR5| RGB LED| 10CM FAN| 10 Power Phases| Double BIOS| DX12 OSD Support (PXOC),
ZOTAC,ZOTAC GeForce GTX 1070 Mini| ZT-P10700G-10M| 8GB GDDR5,
ZOTAC,ZOTAC GeForce GTX 1080 Ti AMP Edition 11GB GDDR5X 352-bit Gaming Graphics Card VR Ready 16+2 Power Phase Freeze Fan Stop IceStorm Cooling Spectra Lighting ZT-P10810D-10P,
EVGA,EVGA GeForce GTX 1080 SC2 GAMING iCX| 08G-P4-6583-KR| 8GB GDDR5X| 9 Thermal Sensors| Asynchronous Fan Control| Thermal Display LED System| Optimized Airflow Fin Design| Die Cast/Form Fitted Baseplate,
Sapphire Tech,Sapphire Radeon NITRO+ RX 580 8GB GDDR5 PCI-E Dual HDMI / DVI-D / Dual DP w/ Backplate SPECIAL EDITION (UEFI)| 100411NT+8GSEL,
