product_name, product_orginalPrice, product_discount 
The Witcher® 3: Wild Hunt,
NZ$ 67.99NZ$ 33.99							,
-50%

The Witcher 3: Wild Hunt - Blood and Wine,
NZ$ 31.99NZ$ 15.99							,
-50%

The Witcher 3: Wild Hunt - Hearts of Stone,
NZ$ 15.99NZ$ 7.99							,
-50%

The Witcher 3: Wild Hunt - Game of the Year Edition,
NZ$ 84.99NZ$ 33.99							,
-60%

ARK: Survival Evolved,
NZ$ 73.99NZ$ 24.42							,
-67%

Nioh: Complete Edition / 仁王 Complete Edition,
NZ$ 61.99NZ$ 37.19							,
-40%

Dying Light,
NZ$ 59.95NZ$ 23.98							,
-60%

Dying Light: The Following,
NZ$ 34.95NZ$ 11.88							,
-66%

Dead by Daylight,
NZ$ 23.99NZ$ 11.99							,
-50%

Dying Light- Crash Test Skin Pack,
NZ$ 3.45NZ$ 2.31							,
-33%

Dying Light Season Pass,
NZ$ 48.95NZ$ 16.64							,
-66%

The Elder Scrolls® Online,
NZ$ 39.95NZ$ 19.97							,
-50%

Football Manager 2018,
NZ$ 89.99NZ$ 30.60							,
-66%

Bus Simulator 18,
NZ$ 43.49NZ$ 39.14							,
-10%

Oxygen Not Included,
NZ$ 29.95NZ$ 23.96							,
-20%

Don't Starve Together,
NZ$ 17.99NZ$ 8.99							,
-50%

Subnautica,
NZ$ 30.99NZ$ 24.79							,
-20%

Ori and the Blind Forest: Definitive Edition,
NZ$ 23.90NZ$ 11.95							,
-50%

Quake Champions,
NZ$ 54.95Free							,
-34%

Warhammer 40,000: Inquisitor - Martyr,
NZ$ 79.99NZ$ 71.99							,
-10%

Killing Floor 2,
NZ$ 35.99NZ$ 14.39							,
-60%

The Elder Scrolls V: Skyrim VR,
NZ$ 89.95NZ$ 62.96							,
-30%

ARK: Scorched Earth - Expansion Pack,
NZ$ 23.99NZ$ 9.60							,
-60%

ARK: Aberration - Expansion Pack,
NZ$ 23.99NZ$ 14.39							,
-40%

Microsoft Flight Simulator X: Steam Edition,
NZ$ 29.99NZ$ 8.99							,
-70%

